[
  {
    "category": "Lo",
    "mappings": {
      "default": {
        "default": "alef símbolo",
        "alternative": "primeiro transfinita cardeal",
        "short": "alef"
      }
    },
    "key": "2135"
  },
  {
    "category": "Lo",
    "mappings": {
      "default": {
        "default": "aposta símbolo",
        "alternative": "segundo transfinita cardeal",
        "short": "aposta"
      }
    },
    "key": "2136"
  },
  {
    "category": "Lo",
    "mappings": {
      "default": {
        "default": "gimel símbolo",
        "alternative": "terceiro transfinita cardeal",
        "short": "gimel"
      }
    },
    "key": "2137"
  },
  {
    "category": "Lo",
    "mappings": {
      "default": {
        "default": "dalet símbolo",
        "alternative": "quarta transfinita cardeal",
        "short": "dalet"
      }
    },
    "key": "2138"
  }
]